<?xml version="1.0" encoding="utf-8"?>
<!-- Generator: Adobe Illustrator 19.2.1, SVG Export Plug-In . SVG Version: 6.00 Build 0)  -->
<svg version="1.1" id="Capa_2" xmlns="http://www.w3.org/2000/svg" xmlns:xlink="http://www.w3.org/1999/xlink" x="0px" y="0px"
	 viewBox="0 0 2254 277.5" style="enable-background:new 0 0 2254 277.5;" xml:space="preserve">
<style type="text/css">
	.st0{fill:#606060;}
</style>
<g>
	
		<image style="overflow:visible;opacity:0.55;enable-background:new    ;" width="238" height="168" xlink:href="4D6F85ADFD0AC5CC.png"  transform="matrix(1 0 0 1 372 56.9027)">
	</image>
	<g>
		<g>
			<polyline class="st0" points="444.9,160.7 453.3,160.7 444.9,146.7 437.7,134.9 407.6,153.1 412.2,160.7 444.9,160.7 			"/>
			<polyline class="st0" points="523.1,160.7 564.2,160.7 538.6,118.1 510.3,71.1 498.7,78.1 480.2,89.2 498.7,120 523.1,160.7 			
				"/>
			<path class="st0" d="M508.7,192.3c-0.9,4.7-5,8.3-10,8.3h-0.1c-5.6-0.1-10.1-4.6-10.1-10.2c0-5.6,4.5-10.1,10.1-10.2h0.1
				c4.9,0,9.1,3.6,10,8.2V192.3 M508.7,174.8c-2.9-1.9-6.3-3-10-3h-0.1c-10.2,0.1-18.4,8.3-18.4,18.5s8.3,18.4,18.4,18.5h0.1
				c3.7,0,7.1-1.1,10-3v1.9h8.5v-47.1h-8.5V174.8z"/>
			<path class="st0" d="M548.7,192.3c-0.9,4.7-5,8.3-10,8.3h-0.1c-5.6-0.1-10.1-4.6-10.1-10.2c0-5.6,4.5-10.1,10.1-10.2h0.1
				c4.9,0,9.1,3.6,10,8.2V192.3 M548.7,174.8c-2.9-1.9-6.3-3-10-3h-0.1c-10.2,0.1-18.4,8.3-18.4,18.5s8.3,18.4,18.4,18.5h0.1
				c3.7,0,7.1-1.1,10-3v1.9h8.5v-35h-8.5V174.8z"/>
			<path class="st0" d="M587.4,188c-0.3-0.2-0.7-0.3-1.2-0.5c-1.9-0.7-5-1.5-9.3-2.4c-3.8-0.8-5.7-1.9-5.7-3.3c0-1,0.3-1.7,1-2.3
				c0.9-0.7,2.4-1.1,4.7-1.1c2.3,0,3.9,0.5,4.9,1.5c0.6,0.6,1,1.7,1.3,3.1h9c0-4.4-1.8-7.6-5.4-9.5c-0.2-0.1-0.4-0.2-0.6-0.3
				c-2.5-1.2-5.7-1.7-9.8-1.7c-5,0-8.7,1.3-11.2,4c-2,2.1-3,4.7-3,7.8c0,3.8,1.9,6.5,5.7,8.3c1.4,0.7,4.9,1.7,10.5,2.8
				c3.7,0.8,5.6,2,5.6,3.4c0,0.9-0.4,1.6-1.2,2.3c-1,0.9-2.6,1.3-4.7,1.3c-2.8,0-4.7-0.5-5.9-1.4c-1.2-0.9-1.7-2.2-1.7-3.8H561
				c0,4.3,1.8,7.5,5.5,9.6c2.9,1.7,6.7,2.5,11.4,2.5c3.1,0,6-0.5,8.3-1.6c0.5-0.2,0.9-0.4,1.4-0.7c3.7-2.1,5.6-5.3,5.6-9.8
				C593.2,192.6,591.3,189.8,587.4,188"/>
			<path class="st0" d="M414.6,192.3c-0.9,4.7-5,8.3-10,8.3h-0.1c-5.5-0.1-10.1-4.6-10.1-10.2c0-5.6,4.5-10.1,10.1-10.2h0.1
				c5,0,9.1,3.6,10,8.2V192.3 M414.6,174.8c-2.9-1.9-6.3-3-10-3h-0.1c-10.1,0.1-18.4,8.3-18.4,18.5s8.3,18.4,18.4,18.5h0.1
				c3.7,0,7.1-1.1,10-3v1.9h8.5v-35h-8.5V174.8z"/>
			<rect x="467.7" y="160.9" class="st0" width="9.3" height="8.1"/>
			<rect x="467.7" y="171.8" class="st0" width="9.3" height="36"/>
			<path class="st0" d="M454.9,192.3c-0.9,4.7-5,8.3-10,8.3h-0.1c-5.6-0.1-10.1-4.6-10.1-10.2c0-5.6,4.5-10.1,10.1-10.2h0.1
				c5,0,9.1,3.6,10,8.2V192.3 M454.9,174.8c-2.9-1.9-6.3-3-10-3h-0.1c-10.2,0.1-18.4,8.3-18.4,18.5s8.3,18.4,18.4,18.5h0.1
				c3.7,0,7.1-1.1,10-3v1.9h8.5v-47.1h-8.5V174.8z"/>
			<polyline class="st0" points="508.7,160.7 498.7,144 474,103 444.9,120.6 443.9,121.2 444.9,122.8 467.7,160.7 508.7,160.7 			
				"/>
		</g>
	</g>
</g>
<g>
	
		<image style="overflow:visible;opacity:0.62;" width="1212" height="169" xlink:href="4D6F85ADFD0AC5CB.png"  transform="matrix(1 0 0 1 683 57.5)">
	</image>
	<g>
		<g>
			<path class="st0" d="M765.3,208.3V99.6l-24.7,71.3h-8.2l-24.3-69v106.4H697V73.2h11.2l28.5,79.5l28.6-79.5h11.2v135.1H765.3z"/>
			<path class="st0" d="M831.2,208.3V73.2h47v10.1h-35.9v52.4h30.9v10.1h-30.9v52.5h35.9v10.1h-47V208.3z"/>
			<path class="st0" d="M976.8,208.3l-19.5-60.5h-17.5v60.5h-11.2V73.2h26.6c4,0,7.8,0.5,11.4,1.4c3.5,0.9,6.6,2.8,9.3,5.5
				c2.7,2.7,4.7,6.5,6.3,11.4c1.5,4.9,2.3,11.2,2.3,19.1c0,10.5-1.4,18.4-4.2,23.8c-2.8,5.4-7,9.1-12.5,11.3l21.1,62.6L976.8,208.3
				L976.8,208.3z M973.2,110.6c0-8.7-1.2-15.5-3.7-20.2c-2.5-4.7-7.1-7.1-13.9-7.1h-15.7v54.4h15.7c6.8,0,11.5-2.3,13.9-7
				C972,126,973.2,119.3,973.2,110.6z"/>
			<path class="st0" d="M1091,177.4c-0.1,5.3-0.9,10.2-2.5,14.8c-1.5,4.6-3.9,8.3-7,11.2c-4.7,4.3-10.9,6.4-18.6,6.4
				c-4.4,0-8.3-0.7-11.7-2.1c-3.4-1.4-6.2-3.3-8.4-5.9c-2-2.1-3.7-4.6-4.9-7.2c-1.3-2.7-2.2-6.2-2.8-10.5c-0.6-4.4-1.1-10-1.3-16.9
				c-0.3-6.9-0.4-15.7-0.4-26.5c0-10.7,0.1-19.6,0.4-26.5s0.7-12.5,1.3-16.9c0.6-4.4,1.6-7.9,2.8-10.5c1.3-2.7,2.9-5.1,4.9-7.2
				c2.3-2.5,5.1-4.5,8.4-5.9s7.2-2.1,11.7-2.1c4.4,0,8.2,0.6,11.3,1.9c3.1,1.3,5.8,3,8.1,5.3c2.9,2.9,5.1,6.5,6.4,10.9
				c1.4,4.4,2.1,9.1,2.3,14.3h-11.2c0-3.4-0.4-6.7-1.1-9.9c-0.8-3.2-2.2-5.8-4.2-8c-1.4-1.4-3-2.5-4.8-3.3s-4.1-1.2-6.7-1.2
				c-5.1,0-9,1.6-12,4.9c-1.4,1.6-2.5,3.5-3.3,5.6s-1.5,5.1-2,9s-0.8,9-0.9,15.3s-0.2,14.3-0.2,24.2s0.1,17.9,0.2,24.2
				s0.4,11.4,0.9,15.3c0.5,3.9,1.2,6.9,2,9s1.9,4,3.3,5.6c2.9,3.3,6.9,4.9,12,4.9c2.7,0,4.9-0.4,6.8-1.2s3.5-1.9,4.7-3.3
				c2-2.1,3.4-4.8,4.2-8.1s1.1-6.5,1.1-9.8h11.2L1091,177.4L1091,177.4z"/>
			<path class="st0" d="M1194.8,180.2c0,4.8-0.7,9-2.1,12.6s-3.4,6.7-5.9,9.2c-5.4,5.2-12.1,7.8-19.9,7.8s-14.5-2.6-19.9-7.8
				c-2.5-2.5-4.5-5.6-6-9.2c-1.5-3.6-2.2-7.8-2.2-12.6v-107h11.2v107.9c0,5.8,1.6,10.4,4.9,13.7s7.3,4.9,12,4.9s8.6-1.6,11.9-4.9
				c3.2-3.3,4.8-7.8,4.8-13.7V73.2h11.2V180.2z"/>
			<path class="st0" d="M1296.1,208.3l-19.5-60.5h-17.5v60.5h-11.2V73.2h26.6c4,0,7.8,0.5,11.4,1.4c3.5,0.9,6.6,2.8,9.3,5.5
				c2.7,2.7,4.7,6.5,6.3,11.4c1.5,4.9,2.3,11.2,2.3,19.1c0,10.5-1.4,18.4-4.2,23.8c-2.8,5.4-7,9.1-12.5,11.3l21.1,62.6L1296.1,208.3
				L1296.1,208.3z M1292.5,110.6c0-8.7-1.2-15.5-3.7-20.2c-2.5-4.7-7.1-7.1-13.9-7.1h-15.7v54.4h15.7c6.8,0,11.5-2.3,13.9-7
				C1291.2,126,1292.5,119.3,1292.5,110.6z"/>
			<path class="st0" d="M1379.7,151.8v56.5h-11.2v-56.5l-23.7-78.5h12.3l16.9,61.8l17.1-61.8h12.3L1379.7,151.8z"/>
			<path class="st0" d="M1566.6,111c0,8-0.8,14.4-2.4,19.3c-1.6,4.9-3.7,8.7-6.4,11.4c-2.7,2.7-5.8,4.6-9.3,5.5s-7.3,1.4-11.2,1.4
				H1522v59.8h-11.2V73.2h26.6c3.9,0,7.6,0.5,11.2,1.4c3.5,0.9,6.6,2.8,9.3,5.6c2.7,2.8,4.8,6.6,6.4,11.5
				C1565.8,96.6,1566.6,103,1566.6,111z M1555.4,111c0-5.7-0.4-10.3-1.3-13.9s-2.2-6.4-3.8-8.4c-1.6-2-3.6-3.4-5.9-4.2
				s-4.8-1.1-7.6-1.1H1522v55.2h14.8c2.8,0,5.3-0.4,7.6-1.1c2.3-0.8,4.2-2.1,5.9-4.1c1.6-2,2.9-4.7,3.8-8.3
				C1554.9,121.3,1555.4,116.7,1555.4,111z"/>
			<path class="st0" d="M1655.3,208.3l-7.4-37h-31.5l-7.2,37h-12.1l30.2-135.1h10.4l29.6,135.1H1655.3z M1632.2,93.3l-13.5,67.9
				h27.1L1632.2,93.3z"/>
			<path class="st0" d="M1766.5,177.4c-0.1,5.3-0.9,10.2-2.5,14.8c-1.5,4.6-3.9,8.3-7,11.2c-4.7,4.3-10.9,6.4-18.6,6.4
				c-4.4,0-8.3-0.7-11.7-2.1c-3.4-1.4-6.2-3.3-8.4-5.9c-2-2.1-3.7-4.6-4.9-7.2c-1.3-2.7-2.2-6.2-2.8-10.5c-0.6-4.4-1.1-10-1.3-16.9
				c-0.3-6.9-0.4-15.7-0.4-26.5c0-10.7,0.1-19.6,0.4-26.5s0.7-12.5,1.3-16.9c0.6-4.4,1.6-7.9,2.8-10.5c1.3-2.7,2.9-5.1,4.9-7.2
				c2.3-2.5,5.1-4.5,8.4-5.9s7.2-2.1,11.7-2.1c4.4,0,8.2,0.6,11.3,1.9c3.1,1.3,5.8,3,8.1,5.3c2.9,2.9,5.1,6.5,6.4,10.9
				c1.4,4.4,2.1,9.1,2.3,14.3h-11.2c0-3.4-0.4-6.7-1.1-9.9c-0.8-3.2-2.2-5.8-4.2-8c-1.4-1.4-3-2.5-4.8-3.3s-4.1-1.2-6.7-1.2
				c-5.1,0-9,1.6-12,4.9c-1.4,1.6-2.5,3.5-3.3,5.6s-1.5,5.1-2,9s-0.8,9-0.9,15.3s-0.2,14.3-0.2,24.2s0.1,17.9,0.2,24.2
				s0.4,11.4,0.9,15.3c0.5,3.9,1.2,6.9,2,9s1.9,4,3.3,5.6c2.9,3.3,6.9,4.9,12,4.9c2.7,0,4.9-0.4,6.8-1.2s3.5-1.9,4.7-3.3
				c2-2.1,3.4-4.8,4.2-8.1s1.1-6.5,1.1-9.8h11.2L1766.5,177.4L1766.5,177.4z"/>
			<path class="st0" d="M1866.3,208.3l-26.2-66.8l-13.1,25.8v41h-11.2V73.2h11.2v73.4l35.9-73.4h12l-27.7,55.8l31.3,79.3H1866.3z"/>
		</g>
	</g>
</g>
</svg>
