<?xml version="1.0" encoding="utf-8"?>
<!-- Generator: Adobe Illustrator 19.2.1, SVG Export Plug-In . SVG Version: 6.00 Build 0)  -->
<svg version="1.1" id="Capa_2" xmlns="http://www.w3.org/2000/svg" xmlns:xlink="http://www.w3.org/1999/xlink" x="0px" y="0px"
	 viewBox="0 0 2254 277.5" style="enable-background:new 0 0 2254 277.5;" xml:space="preserve">
<style type="text/css">
	.st0{fill:#FFFFFF;}
</style>
<g>
	<line class="st0" x1="774.8" y1="169.8" x2="774.8" y2="169.7"/>
	<path class="st0" d="M919,84.6l22.7,83.3l-0.1-0.3c0.4,1.4,0.7,2.9,0.7,4.5c0,8.3-6.7,14.9-15,14.9l-17.7,0l-26.2-96.9L873,93.6
		l19.4,73l-0.1-0.2c0.7,1.7,1,3.5,1,5.4c0,8.3-6.7,15-15,15h-15.4l-26.2-96.9l-10.6,3.3l25.1,93.6h-61l-0.7,0
		c-8.3,0-14.9-6.8-14.9-15.1c0-1,0.1-1.9,0.3-2.8L798,82.7c2.1-5.9,7.6-10.1,14.2-10.1h-0.2h46.4l2.1,0c5.2,0,9.4,4.2,9.4,9.4
		c0,0.1,0,0.2,0,0.3h0.1l32.3-8.5l0.4-0.1c1.1-0.3,2.2-0.4,3.3-0.4C912.6,73.3,918.1,78.2,919,84.6L919,84.6"/>
	<path class="st0" d="M1235.1,186.8c-7.1,0-13-5.1-14.6-11.7l0,0.2l-27.4-102.7h35.1l30.3,114.2H1235.1"/>
	<path class="st0" d="M1087.6,94.9l24.6,91.9h-23.6c-7.3,0-13.3-5.1-14.7-11.9l-0.1-0.2L1051.3,91l-0.1-0.4l0.1,0.4
		c-0.7-1.6-1.1-3.4-1.1-5.2c0-7.3,5.9-13.2,13.2-13.2l0.1,0h49.2V83h-16l-0.1,0c-5.2,0-9.4,4.2-9.4,9.4c0,1,0.2,1.9,0.4,2.8
		L1087.6,94.9"/>
	<path class="st0" d="M1161.3,94.9l23.6,91.9h-26.1c-5.9,0-10.7-4.4-11.7-10l0.1,0.6v0L1123,82.8V28.7l33.2-12.1v46.1l0,0.4
		c0,5.2,4.2,9.4,9.4,9.4l0.1,0h20.1v10.3h-15.2c-5.3,0-9.6,4.3-9.6,9.6C1161,93.3,1161.1,94.2,1161.3,94.9"/>
	<path class="st0" d="M1230.8,45.1c0.6-0.2,1.1-0.5,1.6-0.9c3.4-2.4,4.1-7.1,1.7-10.5c-2-2.8-5.7-3.8-8.8-2.6L1192.6,43
		c-3.1,1.1-5.3,4.2-5,7.7c0.3,4.1,4,7.2,8.1,6.9c0.6-0.1,1.3-0.2,1.8-0.4L1230.8,45.1"/>
	<path class="st0" d="M950.4,137.7c0-4,2.4-7.4,5.9-8.7l43.3-15.8l19.7,73.5h-59.6l-0.3,0c-5-0.2-9-4.3-9-9.3v-39.9L950.4,137.7"/>
	<path class="st0" d="M1004.4,89.2c-0.7-2.3-2.9-4.1-5.4-4.1c-0.6,0-1.2,0.1-1.8,0.3l-0.3,0.1l-45.6,16.6l0.1-11l42.1-15.4l-0.1,0
		c4.4-1.9,9.3-2.9,14.4-2.9c17.7,0,32.5,12.6,35.9,29.3l0,0.2l17.4,64.6l0.1,0.5c0.4,1.4,0.7,2.9,0.7,4.5c0,8.3-6.7,15-15,15h-16.3
		L1004.4,89.2L1004.4,89.2"/>
	<polyline class="st0" points="1279,186.7 1276.1,186.7 1276,174.2 1276,174.2 1273.3,186.7 1270.2,186.7 1267.4,174.2 
		1267.4,174.2 1267.5,186.7 1264.5,186.8 1264.5,171.8 1269,171.8 1271.8,183.5 1271.8,183.5 1274.4,171.8 1279,171.7 1279,186.7 	
		"/>
	<path class="st0" d="M1281.9,171.8l7.6,0c4,0,4.7,2.9,4.7,4.2c0,1.7-0.8,3.1-2.3,3.6c1.2,0.5,1.9,1,1.9,3.8c0,2.2,0,2.7,0.7,3v0.4
		l-3.4,0c-0.2-0.7-0.3-1.5-0.4-3c0-2-0.1-2.8-2.4-2.8l-3.2,0l0,5.8l-3.1,0L1281.9,171.8 M1288.7,178.3c1.6,0,2.4-0.6,2.4-2
		c0-0.8-0.3-1.9-2.2-1.9l-3.9,0l0,4L1288.7,178.3z"/>
	<g>
		<g>
			<path class="st0" d="M1254.7,243.2c0.2,7.7,3.7,10.4,7.5,10.4c4.6,0,6.3-3.5,6.7-5l3.7,1.3c-1.8,4.4-5.3,7.1-10.4,7.1
				c-10,0-11.8-9.1-11.8-14.8c0-5.7,1.9-14.8,11.8-14.8c8.1,0,11,7.1,11,13.8v2.1H1254.7z M1268.8,240.1c0-5.1-2.3-9.4-6.8-9.4
				c-4.4,0-6.7,3.5-7.3,9.4H1268.8z"/>
		</g>
		<g>
			<path class="st0" d="M1237.1,223.1l4.2-1.8v8.8h6.6v3.2h-6.6v15.7c0,2.4,0.2,4.5,3.3,4.5c1.3,0,2-0.2,3.5-0.8v3.4
				c-1.6,0.6-3.2,0.8-3.9,0.8c-6,0-7.1-4.2-7.1-7.4v-16.2h-4.2v-3.2h4.2V223.1z"/>
		</g>
		<g>
			<path class="st0" d="M1217.6,227.9h4.2v5.1h0.1c2.5-3.5,5.8-5.4,9.3-5.4v4.2c-2.1,0-5.9,0-9.4,4.8v19.8h-4.2V227.9z"/>
		</g>
		<g>
			<path class="st0" d="M1188.7,242.1c0-7.3,3.2-14.8,11.8-14.8c10,0,11.8,9.1,11.8,14.8c0,7.4-3.2,14.8-11.8,14.8
				C1190.6,257,1188.7,247.9,1188.7,242.1z M1193.1,242.1c0,5.6,1.5,11.5,7.5,11.5c5.9,0,7.5-5.9,7.5-11.5c0-5.5-1.5-11.4-7.5-11.4
				C1194.6,230.7,1193.1,236.6,1193.1,242.1z"/>
		</g>
		<g>
			<path class="st0" d="M1163,227.9h4.2v3.7h0.1c1-1.5,3.4-4.3,7.7-4.3c6.3,0,10.2,5.5,10.2,14.9c0,11.5-5.5,14.7-9.8,14.7
				c-2.8,0-5.2-0.9-8.2-4.3v12.7h-4.2V227.9z M1167.2,249.2c1.5,2.2,4.1,4.2,6.8,4.2c6,0,6.8-7.1,6.8-10.8c0-4.7-1-11.7-6.8-11.7
				c-3.6,0-6,2.7-6.7,4.3V249.2z"/>
		</g>
		<g>
			<path class="st0" d="M1139.4,243.2c0.2,7.7,3.7,10.4,7.5,10.4c4.6,0,6.3-3.5,6.8-5l3.7,1.3c-1.8,4.4-5.3,7.1-10.4,7.1
				c-10,0-11.8-9.1-11.8-14.8c0-5.7,1.9-14.8,11.8-14.8c8.1,0,11,7.1,11,13.8v2.1H1139.4z M1153.5,240.1c0-5.1-2.3-9.4-6.7-9.4
				c-4.4,0-6.7,3.5-7.3,9.4H1153.5z"/>
		</g>
		<g>
			<path class="st0" d="M1129.9,256.4h-4.2v-3.7h-0.1c-1,1.5-3.4,4.3-7.7,4.3c-6.3,0-10.2-5.5-10.2-14.9c0-11.5,5.5-14.7,9.8-14.7
				c2.8,0,5.2,0.9,8.2,4.3v-12.7h4.2V256.4z M1125.7,235.1c-1.5-2.2-4.1-4.2-6.8-4.2c-6,0-6.8,7.1-6.8,10.8c0,4.7,1,11.7,6.8,11.7
				c3.6,0,6-2.7,6.7-4.3V235.1z"/>
		</g>
		<g>
			<path class="st0" d="M1068.8,227.9h4.2v4.6c2.3-2.1,5.2-5.2,9.5-5.2c4.3,0,7,2.6,6.9,8v21h-4.2v-19.5c0-2.9-0.7-5.7-4.1-5.7
				c-3.9,0-6.4,2.9-8.1,4.9v20.3h-4.2V227.9z"/>
		</g>
		<g>
			<path class="st0" d="M1062.1,256.4h-4.2v-4.6c-2.3,2.1-5.2,5.2-9.5,5.2c-4.3,0-7-2.7-6.9-8.1v-21h4.2v19.5c0,2.9,0.7,5.7,4.1,5.7
				c3.9,0,6.4-2.9,8.1-4.9v-20.3h4.2V256.4z"/>
		</g>
		<g>
			<path class="st0" d="M1006.9,248.6c1,3,2.9,5,6.4,5c4.5,0,5.8-2.9,5.8-4.8c0-2.9-2.1-4-5.7-5.1l-2.1-0.7
				c-3.8-1.2-7.2-3.1-7.2-7.9c0-5.8,5.4-7.9,9.5-7.9c6.4,0,8,4.2,9,6.5l-3.7,1.3c-0.8-3-3-4.4-5.5-4.4c-2.7,0-5.1,1.4-5.1,4.3
				c0,2.2,1,3.1,4.1,4.2l3.8,1.4c4.7,1.6,7,3.7,7,8c0,3.2-2.1,8.3-10.1,8.3c-4.7,0-8.8-2.4-10-7.2L1006.9,248.6z"/>
		</g>
		<g>
			<path class="st0" d="M981.8,243.2c0.2,7.7,3.7,10.4,7.5,10.4c4.6,0,6.3-3.5,6.7-5l3.7,1.3c-1.8,4.4-5.3,7.1-10.4,7.1
				c-10,0-11.8-9.1-11.8-14.8c0-5.7,1.9-14.8,11.8-14.8c8.1,0,11,7.1,11,13.8v2.1H981.8z M995.9,240.1c0-5.1-2.3-9.4-6.7-9.4
				c-4.4,0-6.7,3.5-7.3,9.4H995.9z"/>
		</g>
		<g>
			<path class="st0" d="M948.2,227.9h4.2v5.1h0.1c2.5-3.5,5.8-5.4,9.3-5.4v4.2c-2.1,0-5.8,0-9.4,4.8v19.8h-4.2V227.9z"/>
		</g>
		<g>
			<path class="st0" d="M936.8,218.9h4.7v4.2h-4.7V218.9z M937,227.9h4.2v28.5H937V227.9z"/>
		</g>
		<g>
			<path class="st0" d="M914.3,227.9l4.9,16.3c0.8,2.5,1.2,4.2,2.2,8h0.2c1-3.8,1.4-5.4,2.2-8l5.1-16.3h4.2l-9.2,28.5h-5.2
				l-9.2-28.5H914.3z"/>
		</g>
		<g>
			<path class="st0" d="M901.5,218.9h4.7v4.2h-4.7V218.9z M901.7,227.9h4.2v28.5h-4.2V227.9z"/>
		</g>
		<g>
			<path class="st0" d="M882.3,248c0.5,1.4,0.8,2.8,1.1,4.2h0.2c0.3-1.4,0.7-2.8,1.1-4.2l8.5-25.9h4.5l-11.6,34.3h-5.7l-11.3-34.3
				h4.8L882.3,248z"/>
		</g>
	</g>
</g>
</svg>
